{
    "artists": {
        "href": "https://api.spotify.com/v1/search?query=50+cent&type=artist&offset=0&limit=1",
        "items": [
            {
                "external_urls": {
                    "spotify": "https://open.spotify.com/artist/3q7HBObVc0L8jNeTe5Gofh"
                },
                "followers": {
                    "href": null,
                    "total": 5812673
                },
                "genres": [
                    "east coast hip hop",
                    "gangster rap",
                    "hip hop",
                    "pop rap",
                    "queens hip hop",
                    "rap"
                ],
                "href": "https://api.spotify.com/v1/artists/3q7HBObVc0L8jNeTe5Gofh",
                "id": "3q7HBObVc0L8jNeTe5Gofh",
                "images": [
                    {
                        "height": 977,
                        "url": "https://i.scdn.co/image/dd031b9c5d1b6eba4a691cd89c954255aae787f2",
                        "width": 781
                    },
                    {
                        "height": 801,
                        "url": "https://i.scdn.co/image/6f0da41419b31d9d2ba55d2df212f59ad0668118",
                        "width": 640
                    },
                    {
                        "height": 250,
                        "url": "https://i.scdn.co/image/df73c0cebe56cafe705ffdba5085ccbd5680bd16",
                        "width": 200
                    },
                    {
                        "height": 80,
                        "url": "https://i.scdn.co/image/1a44043542c997ef835c89e185f0cf79d7402153",
                        "width": 64
                    }
                ],
                "name": "50 Cent",
                "popularity": 85,
                "type": "artist",
                "uri": "spotify:artist:3q7HBObVc0L8jNeTe5Gofh"
            }
        ],
        "limit": 1,
        "next": "https://api.spotify.com/v1/search?query=50+cent&type=artist&offset=1&limit=1",
        "offset": 0,
        "previous": null,
        "total": 20
    }
}